පටු පඩිපෙළ දිගේ ඉහලට නැගී තම කාමරයේ දොරින් මතු වූ ඇය සතුටින් මොර දුන්නාය
මුහුදු වෙරළට එන රළපෙළ සුදු සාරියක් මෙන්ය
දිනපතා පාසලට යන ශිෂ්‍යයා විභාගය හොදින් සමත්විය
වලාකුළු අතරින් එබී බලන සුපුන් සද සිය රැස්දහරා පතුරවමින් අප සිත් පුබුදු කරයි
රාජ කුමාරයාගේ රාජාභිෂේකය නිමිත්තෙන් රටවැසියෝ ප්‍රීතිඝෝෂා පැවැත්වුවෝය
සිගිරිය අප රටට මිල කල නොහැකි අගනා වස්තුවකි
තරුණ උපාසිකාව සුදු වතින් සැරසී තෙල් ද මල් ද පහන් ද රැගෙන හිමිදිරි උදැසනම ශාන්ත ගමනින් විහාරයට ගියාය
වත්තේ රෝස මල් පිපි ඇති අයුරු දැක නාමලී බොහෝ සතුටු වුවාය
ඔවුන් දෙදෙනාගේ ආදරයට දෙමාපියන්ගේ ආශිර්වාදය ලැබුණි
ශ්‍රී ලංකා ක්‍රිකට් පිල එංගලන්තයේදී විශිෂ්ට ජයක්ග්රහණයක් ලැබුවේය