කළු
නිල්
දුඹුරු
අළු
කොළ
තැඹිලි
දම්
රතු
සුදු
කහ
ලොකු
ගැඹුරු
දිග
පටු
කොට
කුඩා
උස
මහත
සිහින්
පුළුල්
වෘත්තය
ඍජු
සමචතුරස්‍රය
ත්‍රිකෝණය
තිත්ත
නැවුම්
ලුණුමිශ්‍ර
ඇඹුල්
රසවත්
පැණිරස
නරක
පිරිසිදු
අඳුරු
අමාරු
කිලිටි
වියළි
පහසු
හිස්
මිල
අධික
වේගවත්
විදේශීය
පිරුණු
හොඳ
දැඩි
 බර
ලාබ
සැහැල්ලු
දේශීය
අලුත්
ඝෝෂා සහිත
පැරණි
බලවත්
නිහඬ
නිවැරදි
මඳ
මෘදු
ඉතා
දුර්වල
තෙත
වැරදි
තරුණ
ස්වල්ප
සුළු
බොහෝ
කොටස
සමහර
සුළු
සම්පූර්ණ